…
# Archiving in a local database

We often save the data in a directory structure aong with a simple table
that catalogs the contents of the directory. The `archive_biooracle()`
function will split up the fecthed data and save in a logical data
structure. We provide the data path, in this case for the Northwest
Atlantic (nwa).

``` r
archive_biooracle(newfile, path = nwa_path)
```

    ## # A tibble: 56 × 5
    ##    scenario year  z        param  trt  
    ##    <chr>    <chr> <chr>    <chr>  <chr>
    ##  1 ssp119   2020  depthmin thetao ltmax
    ##  2 ssp119   2020  depthmin thetao ltmin
    ##  3 ssp119   2020  depthmin thetao max  
    ##  4 ssp119   2020  depthmin thetao mean 
    ##  5 ssp119   2020  depthmin thetao min  
    ##  6 ssp119   2020  depthmin thetao range
    ##  7 ssp119   2020  depthmin thetao sd   
    ##  8 ssp119   2030  depthmin thetao ltmax
    ##  9 ssp119   2030  depthmin thetao ltmin
    ## 10 ssp119   2030  depthmin thetao max  
    ## # ℹ 46 more rows
…
# Read the database catalog

Once you have established a database of files, your can read the
database catalog.

``` r
db = read_database(nwa_path) |>
  print()
```

    ## # A tibble: 56 × 5
    ##    scenario year  z        param  trt  
    ##    <chr>    <chr> <chr>    <chr>  <chr>
    ##  1 ssp119   2020  depthmin thetao ltmax
    ##  2 ssp119   2020  depthmin thetao ltmin
    ##  3 ssp119   2020  depthmin thetao max  
    ##  4 ssp119   2020  depthmin thetao mean 
    ##  5 ssp119   2020  depthmin thetao min  
    ##  6 ssp119   2020  depthmin thetao range
    ##  7 ssp119   2020  depthmin thetao sd   
    ##  8 ssp119   2030  depthmin thetao ltmax
    ##  9 ssp119   2030  depthmin thetao ltmin
    ## 10 ssp119   2030  depthmin thetao max  
    ## # ℹ 46 more rows
…
